[3J[H[2J#          ________  ________            __   ______    ______  
#         /        |/        |          /  | /      \  /      \ 
#         88888888/ 88888888/  _______  88/ /888888  |/888888  |
#         88 |__    88 |__    /       \ /  |88 |  88/ 88 \__88/ 
#         88    |   88    |   8888888  |88 |88 |      88      \ 
#         88888/    88888/    88 |  88 |88 |88 |   __  888888  |
#         88 |      88 |_____ 88 |  88 |88 |88 \__/  |/  \__88 |
#         88 |      88       |88 |  88 |88 |88    88/ 88    88/ 
#         88/       88888888/ 88/   88/ 88/  888888/   888888/  
# 
# For more information please visit the project website:
# 
#     http://www.fenicsproject.org
#

# k = 1
200 1e-07 1.0 20.0 1015.24584272
200 3.98107170553e-08 1.0 20.0 817.020678435
200 1.58489319246e-08 1.0 20.0 871.757242663
200 6.3095734448e-09 1.0 20.0 1412.80825418
200 2.51188643151e-09 1.0 20.0 2925.72125683
200 1e-09 1.0 20.0 6742.9362175
200 3.98107170553e-10 1.0 20.0 16268.9563666
200 1.58489319246e-10 1.0 20.0 40060.6118352
200 6.3095734448e-11 1.0 20.0 99588.5234533
200 2.51188643151e-11 1.0 20.0 248736.205493
200 1e-11 1.0 20.0 622771.807622

# k = 10
200 1e-07 10.0 20.0 2102.44016046
200 3.98107170553e-08 10.0 20.0 1747.38174794
200 1.58489319246e-08 10.0 20.0 1554.84821159
200 6.3095734448e-09 10.0 20.0 1870.75552301
200 2.51188643151e-09 10.0 20.0 3280.41091967
200 1e-09 10.0 20.0 7056.59071787
200 3.98107170553e-10 10.0 20.0 16565.5882554
200 1.58489319246e-10 10.0 20.0 40349.7456594
200 6.3095734448e-11 10.0 20.0 99874.156146
200 2.51188643151e-11 10.0 20.0 249020.106615
200 1e-11 10.0 20.0 623054.803864

# k = 100
200 1e-07 100.0 20.0 3838.36516123
200 3.98107170553e-08 100.0 20.0 3477.19248919
200 1.58489319246e-08 100.0 20.0 3171.02258777
200 6.3095734448e-09 100.0 20.0 3119.80027629
200 2.51188643151e-09 100.0 20.0 4166.39725126
200 1e-09 100.0 20.0 7776.51662605
200 3.98107170553e-10 100.0 20.0 17219.6586561
200 1.58489319246e-10 100.0 20.0 40977.180361
200 6.3095734448e-11 100.0 20.0 100490.442224
200 2.51188643151e-11 100.0 20.0 249631.557385
200 1e-11 100.0 20.0 623664.070854

# k = 1000
200 3.98107170553e-08 1000.0 20.0 6096.52320358
200 1.58489319246e-08 1000.0 20.0 6096.72137146
200 6.3095734448e-09 1000.0 20.0 6105.13491688
200 2.51188643151e-09 1000.0 20.0 6541.93997991
200 1e-09 1000.0 20.0 9538.79918478
200 3.98107170553e-10 1000.0 20.0 18706.0091382
200 1.58489319246e-10 1000.0 20.0 42355.0966534
200 6.3095734448e-11 1000.0 20.0 101825.828949
200 2.51188643151e-11 1000.0 20.0 250950.185852
200 1e-11 1000.0 20.0 624976.107451

# k = 1e4
200 3.98107170553e-08 10000.0 20.0 9275.64225689
200 1.58489319246e-08 10000.0 20.0 10346.024516
200 6.3095734448e-09 10000.0 20.0 11461.3895567
200 2.51188643151e-09 10000.0 20.0 12337.1494519
200 1e-09 10000.0 20.0 14188.4498881
200 3.98107170553e-10 10000.0 20.0 22281.9495001
200 1.58489319246e-10 10000.0 20.0 45460.3246209
200 6.3095734448e-11 10000.0 20.0 104748.681939
200 2.51188643151e-11 10000.0 20.0 253803.941754
200 1e-11 10000.0 20.0 627804.472084

# k = 1e5
200 3.98107170553e-08 100000.0 20.0 12358.5594786
200 1.58489319246e-08 100000.0 20.0 15245.9304633
200 6.3095734448e-09 100000.0 20.0 19040.7140908
200 2.51188643151e-09 100000.0 20.0 22872.8518827
200 1e-09 100000.0 20.0 25807.2897127
200 3.98107170553e-10 100000.0 20.0 31565.8976746
200 1.58489319246e-10 100000.0 20.0 52819.7520996
200 6.3095734448e-11 100000.0 20.0 111289.272932
200 2.51188643151e-11 100000.0 20.0 260032.694917
200 1e-11 100000.0 20.0 633919.409115

# k = 1e6
200 1e-07 1000000.0 20.0 11879.1917442
200 3.98107170553e-08 1000000.0 20.0 14789.7857951
200 1.58489319246e-08 1000000.0 20.0 19745.5978361
200 6.3095734448e-09 1000000.0 20.0 27511.2733618
200 2.51188643151e-09 1000000.0 20.0 37669.5955116
200 1e-09 1000000.0 20.0 47641.6444348
200 3.98107170553e-10 1000000.0 20.0 55273.2496278
200 1.58489319246e-10 1000000.0 20.0 71615.4132364
200 6.3095734448e-11 1000000.0 20.0 126588.544958
200 2.51188643151e-11 1000000.0 20.0 273887.833072
200 1e-11 1000000.0 20.0 647234.861939

# k = 1e7
200 1e-07 10000000.0 20.0 12732.0615596
200 3.98107170553e-08 10000000.0 20.0 16400.5531588
200 1.58489319246e-08 10000000.0 20.0 23125.6555388
200 6.3095734448e-09 10000000.0 20.0 35040.8956068
200 2.51188643151e-09 10000000.0 20.0 54018.7665804
200 1e-09 10000000.0 20.0 78627.115342
200 3.98107170553e-10 10000000.0 20.0 101989.176888
200 1.58489319246e-10 10000000.0 20.0 120366.230754
200 6.3095734448e-11 10000000.0 20.0 165022.32132
200 2.51188643151e-11 10000000.0 20.0 305926.21962
200 1e-11 10000000.0 20.0 676702.727683

# k = 1e8
200 1e-07 100000000.0 20.0 13194.168253
200 3.98107170553e-08 100000000.0 20.0 17333.6813076
200 1.58489319246e-08 100000000.0 20.0 25283.352449
200 6.3095734448e-09 100000000.0 20.0 40541.5449215
200 2.51188643151e-09 100000000.0 20.0 68364.0720092
200 1e-09 100000000.0 20.0 113077.410363
200 3.98107170553e-10 100000000.0 20.0 170011.636888
200 1.58489319246e-10 100000000.0 20.0 221878.788488
200 6.3095734448e-11 100000000.0 20.0 265516.810845
200 2.51188643151e-11 100000000.0 20.0 385114.381196
200 1e-11 100000000.0 20.0 744160.427181

# k = 1e9
200 1e-07 1000000000.0 20.0 13427.3822342
200 3.98107170553e-08 1000000000.0 20.0 17825.6918934
200 1.58489319246e-08 1000000000.0 20.0 26502.5164403
200 6.3095734448e-09 1000000000.0 20.0 43983.3813466
200 2.51188643151e-09 1000000000.0 20.0 78727.9723466
200 1e-09 1000000000.0 20.0 143407.974362
200 3.98107170553e-10 1000000000.0 20.0 247188.194684
200 1.58489319246e-10 1000000000.0 20.0 375457.072287
200 6.3095734448e-11 1000000000.0 20.0 486946.386285
200 2.51188643151e-11 1000000000.0 20.0 592325.494132
200 1e-11 1000000000.0 20.0 908313.399363

# k = 1e10
200 1e-07 10000000000.0 20.0 13540.3021188
200 3.98107170553e-08 10000000000.0 20.0 18070.145507
200 1.58489319246e-08 10000000000.0 20.0 27135.6808801
200 6.3095734448e-09 10000000000.0 20.0 45903.9842019
200 2.51188643151e-09 10000000000.0 20.0 85166.3086746
200 1e-09 10000000000.0 20.0 165367.034572
200 3.98107170553e-10 10000000000.0 20.0 316262.53784
200 1.58489319246e-10 10000000000.0 20.0 555112.366651
200 6.3095734448e-11 10000000000.0 20.0 838618.293723
200 2.51188643151e-11 10000000000.0 20.0 1073519.09182
200 1e-11 10000000000.0 20.0 1335537.141

# k = 1e11
200 1e-07 1e+11 20.0 13593.7907526
200 3.98107170553e-08 1e+11 20.0 18187.5470944
200 1.58489319246e-08 1e+11 20.0 27447.6241733
200 6.3095734448e-09 1e+11 20.0 46894.6410116
200 2.51188643151e-09 1e+11 20.0 88746.1672927
200 1e-09 1e+11 20.0 179042.10715
200 3.98107170553e-10 1e+11 20.0 366897.354972
200 1.58489319246e-10 1e+11 20.0 720218.502701
200 6.3095734448e-11 1e+11 20.0 1265850.73316
200 2.51188643151e-11 1e+11 20.0 1882509.29612
200 1e-11 1e+11 20.0 2372799.82782

# k = 1e12
200 1e-07 1e+12 20.0 13618.8551035
200 3.98107170553e-08 1e+12 20.0 18242.9365562
200 1.58489319246e-08 1e+12 20.0 27596.8128282
200 6.3095734448e-09 1e+12 20.0 47381.2494869
200 2.51188643151e-09 1e+12 20.0 90589.5925553
200 1e-09 1e+12 20.0 186667.872755
200 3.98107170553e-10 1e+12 20.0 398741.322021
200 1.58489319246e-10 1e+12 20.0 843749.185201
200 6.3095734448e-11 1e+12 20.0 1672043.33105
200 2.51188643151e-11 1e+12 20.0 2908374.47119
200 1e-11 1e+12 20.0 4230409.84694
