#          ________  ________            __   ______    ______  
#         /        |/        |          /  | /      \  /      \ 
#         88888888/ 88888888/  _______  88/ /888888  |/888888  |
#         88 |__    88 |__    /       \ /  |88 |  88/ 88 \__88/ 
#         88    |   88    |   8888888  |88 |88 |      88      \ 
#         88888/    88888/    88 |  88 |88 |88 |   __  888888  |
#         88 |      88 |_____ 88 |  88 |88 |88 \__/  |/  \__88 |
#         88 |      88       |88 |  88 |88 |88    88/ 88    88/ 
#         88/       88888888/ 88/   88/ 88/  888888/   888888/  
# 
# For more information please visit the project website:
# 
#     http://www.fenicsproject.org
#
# k = 1
400 1e-07 1.0 -188.706685478 994.48748325
400 6.3095734448e-08 1.0 -157.255571232 880.450538205
400 3.98107170553e-08 1.0 -157.255571232 802.653054035
400 2.51188643151e-08 1.0 -131.04630936 785.951297392
400 1.58489319246e-08 1.0 -157.255571232 858.601387563
400 1e-08 1.0 -188.706685478 1048.11118605
400 6.3095734448e-09 1.0 -271.737627089 1394.83212098
400 3.98107170553e-09 1.0 -391.302183008 1969.78828778
400 2.51188643151e-09 1.0 -563.475143532 2892.28752631
400 1.58489319246e-09 1.0 -811.404206686 4355.92430755
400 1e-09 1.0 -1168.42205763 6669.81704784
400 6.3095734448e-10 1.0 -2019.03331558 10324.4226216
400 3.98107170553e-10 1.0 -2907.40797444 16096.6888403
400 2.51188643151e-10 1.0 -5024.00097982 25219.2431249
400 1.58489319246e-10 1.0 -7234.56141095 39640.8603978
400 1e-10 1.0 -10417.7684318 62453.8821348
400 6.3095734448e-11 1.0 -18001.9038501 98549.6598523
400 3.98107170553e-11 1.0 -31107.2898529 155686.840373
400 2.51188643151e-11 1.0 -44794.4973882 246146.289929
400 1.58489319246e-11 1.0 -77404.8914869 389401.5392
400 1e-11 1.0 100000.0 616293.388004

# k = 10
400 1e-07 10.0 -391.302183008 2061.4717177
400 6.3095734448e-08 10.0 -326.085152507 1876.0746693
400 3.98107170553e-08 10.0 -326.085152507 1713.43148689
400 2.51188643151e-08 10.0 -271.737627089 1588.02842778
400 1.58489319246e-08 10.0 -271.737627089 1527.60639084
400 1e-08 10.0 -271.737627089 1590.77962725
400 6.3095734448e-09 10.0 -326.085152507 1842.95548905
400 3.98107170553e-09 10.0 -469.56261961 2356.0217382
400 2.51188643151e-09 10.0 -563.475143532 3239.40585778
400 1.58489319246e-09 10.0 -811.404206686 4678.64209031
400 1e-09 10.0 -1168.42205763 6977.10976839
400 6.3095734448e-10 10.0 -2019.03331558 10621.2947326
400 3.98107170553e-10 10.0 -2907.40797444 16387.1642849
400 2.51188643151e-10 10.0 -5024.00097982 25505.1736373
400 1.58489319246e-10 10.0 -7234.56141095 39923.9739011
400 1e-10 10.0 -12501.3221181 62734.9181034
400 6.3095734448e-11 10.0 -18001.9038501 98829.3475113
400 3.98107170553e-11 10.0 -31107.2898529 155965.485306
400 2.51188643151e-11 10.0 -44794.4973882 246424.286036
400 1.58489319246e-11 10.0 -77404.8914869 389678.990266
400 1e-11 10.0 100000.0 616570.505469

# k = 100
400 1e-07 100.0 -676.170172238 3771.3917644
400 6.3095734448e-08 100.0 -676.170172238 3590.36723456
400 3.98107170553e-08 100.0 -676.170172238 3412.13013036
400 2.51188643151e-08 100.0 -563.475143532 3248.43015493
400 1.58489319246e-08 100.0 -563.475143532 3113.25586042
400 1e-08 100.0 -563.475143532 3027.36845465
400 6.3095734448e-09 100.0 -563.475143532 3066.58220014
400 3.98107170553e-09 100.0 -563.475143532 3374.81090452
400 2.51188643151e-09 100.0 -811.404206686 4106.61081884
400 1.58489319246e-09 100.0 -973.685048023 5446.07431158
400 1e-09 100.0 -1402.10646915 7681.47624565
400 6.3095734448e-10 100.0 -2019.03331558 11286.4619033
400 3.98107170553e-10 100.0 -2907.40797444 17027.7214958
400 2.51188643151e-10 100.0 -5024.00097982 26129.4511575
400 1.58489319246e-10 100.0 -7234.56141095 40538.3475695
400 1e-10 100.0 -12501.3221181 63342.4881905
400 6.3095734448e-11 100.0 -18001.9038501 99432.8029725
400 3.98107170553e-11 100.0 -31107.2898529 156565.980963
400 2.51188643151e-11 100.0 -44794.4973882 247023.016323
400 1.58489319246e-11 100.0 -77404.8914869 390276.374908
400 1e-11 100.0 100000.0 617167.114288

# k = 1000
400 1e-07 1000.0 -1168.42205763 5989.25940403
400 6.3095734448e-08 1000.0 -1168.42205763 5989.28780331
400 3.98107170553e-08 1000.0 -1168.42205763 5989.34945807
400 2.51188643151e-08 1000.0 -1168.42205763 5989.49058528
400 1.58489319246e-08 1000.0 -1168.42205763 5989.83910429
400 1e-08 1000.0 -1168.42205763 5990.91620968
400 6.3095734448e-09 1000.0 -1168.42205763 5998.70610829
400 3.98107170553e-09 1000.0 -1168.42205763 6072.68733724
400 2.51188643151e-09 1000.0 -1168.42205763 6433.57349925
400 1.58489319246e-09 1000.0 -1402.10646915 7424.35387519
400 1e-09 1000.0 -1682.52776298 9406.2096328
400 6.3095734448e-10 1000.0 -2422.8399787 12845.6736285
400 3.98107170553e-10 1000.0 -3488.88956932 18482.4205863
400 2.51188643151e-10 1000.0 -5024.00097982 27519.0014888
400 1.58489319246e-10 1000.0 -7234.56141095 41887.6024113
400 1e-10 1000.0 -12501.3221181 64665.6879202
400 6.3095734448e-11 1000.0 -18001.9038501 100740.373629
400 3.98107170553e-11 1000.0 -31107.2898529 157863.213975
400 2.51188643151e-11 1000.0 -44794.4973882 248314.20101
400 1.58489319246e-11 1000.0 -77404.8914869 391563.432885
400 1e-11 1000.0 100000.0 618451.884764

# k = 1e4
400 1e-07 10000.0 -1402.10646915 8282.00938205
400 6.3095734448e-08 10000.0 -1682.52776298 8660.87918892
400 3.98107170553e-08 10000.0 -1682.52776298 9108.88459908
400 2.51188643151e-08 10000.0 -1682.52776298 9619.35077821
400 1.58489319246e-08 10000.0 -2019.03331558 10173.4766568
400 1e-08 10000.0 -2019.03331558 10740.1924724
400 6.3095734448e-09 10000.0 -2019.03331558 11271.1591951
400 3.98107170553e-09 10000.0 -2019.03331558 11730.5548311
400 2.51188643151e-09 10000.0 -2422.8399787 12126.0796239
400 1.58489319246e-09 10000.0 -2422.8399787 12669.7076373
400 1e-09 10000.0 -2422.8399787 13960.2686512
400 6.3095734448e-10 10000.0 -2907.40797444 16782.6525018
400 3.98107170553e-10 10000.0 -4186.66748319 21982.2483751
400 2.51188643151e-10 10000.0 -6028.80117579 30736.3046882
400 1.58489319246e-10 10000.0 -8681.47369314 44927.260143
400 1e-10 10000.0 -12501.3221181 67594.9651444
400 6.3095734448e-11 10000.0 -18001.9038501 103602.282574
400 3.98107170553e-11 10000.0 -31107.2898529 160682.585695
400 2.51188643151e-11 10000.0 -44794.4973882 251108.513307
400 1.58489319246e-11 10000.0 -77404.8914869 394341.853081
400 1e-11 10000.0 100000.0 621221.440791

# k = 1e5
400 1e-07 100000.0 -2019.03331558 10184.3800488
400 6.3095734448e-08 100000.0 -2019.03331558 11034.551501
400 3.98107170553e-08 100000.0 -2019.03331558 12093.8365182
400 2.51188643151e-08 100000.0 -2422.8399787 13413.2973969
400 1.58489319246e-08 100000.0 -2907.40797444 14985.7121196
400 1e-08 100000.0 -2907.40797444 16792.0726454
400 6.3095734448e-09 100000.0 -3488.88956932 18744.3689526
400 3.98107170553e-09 100000.0 -3488.88956932 20695.3853678
400 2.51188643151e-09 100000.0 -4186.66748319 22503.778858
400 1.58489319246e-09 100000.0 -4186.66748319 24037.313803
400 1e-09 100000.0 -5024.00097982 25370.3663078
400 6.3095734448e-10 100000.0 -5024.00097982 27211.8576595
400 3.98107170553e-10 100000.0 -6028.80117579 31073.2299382
400 2.51188643151e-10 100000.0 -7234.56141095 38709.3890316
400 1.58489319246e-10 100000.0 -10417.7684318 52130.2878858
400 1e-10 100000.0 -12501.3221181 74305.3570779
400 6.3095734448e-11 100000.0 -21602.2846201 110005.336044
400 3.98107170553e-11 100000.0 -31107.2898529 166895.805025
400 2.51188643151e-11 100000.0 -44794.4973882 257207.291134
400 1.58489319246e-11 100000.0 -77404.8914869 400370.101381
400 1e-11 100000.0 100000.0 627209.095913

# k = 1e6
400 1e-07 1000000.0 -2019.03331558 11490.9921192
400 6.3095734448e-08 1000000.0 -2422.8399787 12752.8245122
400 3.98107170553e-08 1000000.0 -2422.8399787 14404.6409318
400 2.51188643151e-08 1000000.0 -2907.40797444 16574.1017153
400 1.58489319246e-08 1000000.0 -3488.88956932 19361.8770461
400 1e-08 1000000.0 -4186.66748319 22857.2322658
400 6.3095734448e-09 1000000.0 -5024.00097982 27077.7727333
400 3.98107170553e-09 1000000.0 -6028.80117579 31914.6586692
400 2.51188643151e-09 1000000.0 -7234.56141095 37095.2303774
400 1.58489319246e-09 1000000.0 -7234.56141095 42227.2562321
400 1e-09 1000000.0 -8681.47369314 46880.6009202
400 6.3095734448e-10 1000000.0 -8681.47369314 50775.4488223
400 3.98107170553e-10 1000000.0 -10417.7684318 54346.78183
400 2.51188643151e-10 1000000.0 -10417.7684318 59731.3425544
400 1.58489319246e-10 1000000.0 -12501.3221181 70532.3683582
400 1e-10 1000000.0 -18001.9038501 90655.8855341
400 6.3095734448e-11 1000000.0 -21602.2846201 124979.346843
400 3.98107170553e-11 1000000.0 -31107.2898529 180998.756973
400 2.51188643151e-11 1000000.0 -53753.3968659 270771.619312
400 1.58489319246e-11 1000000.0 -77404.8914869 413604.319526
400 1e-11 1000000.0 100000.0 640246.747866

# k = 1e7
400 1e-07 10000000.0 -2422.8399787 12257.5381518
400 6.3095734448e-08 10000000.0 -2422.8399787 13811.4256379
400 3.98107170553e-08 10000000.0 -2907.40797444 15909.4407713
400 2.51188643151e-08 10000000.0 -3488.88956932 18750.9116119
400 1.58489319246e-08 10000000.0 -4186.66748319 22589.1177049
400 1e-08 10000000.0 -5024.00097982 27713.3819505
400 6.3095734448e-09 10000000.0 -6028.80117579 34409.5259324
400 3.98107170553e-09 10000000.0 -7234.56141095 42885.2522713
400 2.51188643151e-09 10000000.0 -10417.7684318 53188.7560927
400 1.58489319246e-09 10000000.0 -12501.3221181 64968.8196823
400 1e-09 10000000.0 -15001.5865417 77448.8976018
400 6.3095734448e-10 10000000.0 -15001.5865417 89567.5668204
400 3.98107170553e-10 10000000.0 -18001.9038501 100358.229496
400 2.51188643151e-10 10000000.0 -21602.2846201 109325.479735
400 1.58489319246e-10 10000000.0 -21602.2846201 118367.704336
400 1e-10 10000000.0 -25922.7415441 133396.002725
400 6.3095734448e-11 10000000.0 -31107.2898529 162603.110263
400 3.98107170553e-11 10000000.0 -37328.7478235 214840.382644
400 2.51188643151e-11 10000000.0 -53753.3968659 302130.006025
400 1.58489319246e-11 10000000.0 -77404.8914869 443407.754787
400 1e-11 10000000.0 100000.0 669095.382874

# k = 1e8
400 1e-07 100000000.0 -2422.8399787 12671.3366912
400 6.3095734448e-08 100000000.0 -2422.8399787 14386.5119258
400 3.98107170553e-08 100000000.0 -2907.40797444 16756.2238722
400 2.51188643151e-08 100000000.0 -3488.88956932 20037.331728
400 1.58489319246e-08 100000000.0 -4186.66748319 24595.4466311
400 1e-08 100000000.0 -6028.80117579 30935.7930199
400 6.3095734448e-09 100000000.0 -7234.56141095 39687.8920318
400 3.98107170553e-09 100000000.0 -8681.47369314 51504.3282479
400 2.51188643151e-09 100000000.0 -12501.3221181 67221.8069324
400 1.58489319246e-09 100000000.0 -15001.5865417 87188.3864022
400 1e-09 100000000.0 -21602.2846201 111405.650815
400 6.3095734448e-10 100000000.0 -25922.7415441 138874.77251
400 3.98107170553e-10 100000000.0 -31107.2898529 167501.718593
400 2.51188643151e-10 100000000.0 -37328.7478235 194695.36933
400 1.58489319246e-10 100000000.0 -37328.7478235 218280.757278
400 1e-10 100000000.0 -44794.4973882 238245.324902
400 6.3095734448e-11 100000000.0 -44794.4973882 261142.941929
400 3.98107170553e-11 100000000.0 -53753.3968659 302260.957531
400 2.51188643151e-11 100000000.0 -64504.0762391 379638.964114
400 1.58489319246e-11 100000000.0 -92885.8697843 513937.905081
400 1e-11 100000000.0 100000.0 735121.76471

# k = 1e9
400 1e-07 1000000000.0 -2422.8399787 12877.8537774
400 6.3095734448e-08 1000000000.0 -2907.40797444 14681.2402635
400 3.98107170553e-08 1000000000.0 -2907.40797444 17193.2110616
400 2.51188643151e-08 1000000000.0 -3488.88956932 20718.6739334
400 1.58489319246e-08 1000000000.0 -5024.00097982 25715.7287712
400 1e-08 1000000000.0 -6028.80117579 32829.7733366
400 6.3095734448e-09 1000000000.0 -7234.56141095 42891.7024464
400 3.98107170553e-09 1000000000.0 -10417.7684318 57207.8007722
400 2.51188643151e-09 1000000000.0 -15001.5865417 77156.253049
400 1.58489319246e-09 1000000000.0 -18001.9038501 104575.406581
400 1e-09 1000000000.0 -25922.7415441 141136.850001
400 6.3095734448e-10 1000000000.0 -37328.7478235 187550.205072
400 3.98107170553e-10 1000000000.0 -44794.4973882 243681.233891
400 2.51188643151e-10 1000000000.0 -53753.3968659 306106.471586
400 1.58489319246e-10 1000000000.0 -64504.0762391 369838.246227
400 1e-10 1000000000.0 -77404.8914869 428918.309198
400 6.3095734448e-11 1000000000.0 -92885.8697843 478998.207916
400 3.98107170553e-11 1000000000.0 -92885.8697843 523344.096122
400 2.51188643151e-11 1000000000.0 100000.0 582723.355283
400 1.58489319246e-11 1000000000.0 100000.0 693554.889671
400 1e-11 1000000000.0 100000.0 895759.85581

# k = 1e10
400 1e-07 10000000000.0 -2422.8399787 12977.3243192
400 6.3095734448e-08 10000000000.0 -2907.40797444 14826.4351758
400 3.98107170553e-08 10000000000.0 -2907.40797444 17407.8801401
400 2.51188643151e-08 10000000000.0 -4186.66748319 21063.5841346
400 1.58489319246e-08 10000000000.0 -5024.00097982 26297.9096951
400 1e-08 10000000000.0 -6028.80117579 33820.7936942
400 6.3095734448e-09 10000000000.0 -8681.47369314 44679.7190452
400 3.98107170553e-09 10000000000.0 -10417.7684318 60441.6608172
400 2.51188643151e-09 10000000000.0 -15001.5865417 83273.1893945
400 1.58489319246e-09 10000000000.0 -21602.2846201 116012.0611
400 1e-09 10000000000.0 -31107.2898529 162282.264075
400 6.3095734448e-10 10000000000.0 -44794.4973882 226086.982847
400 3.98107170553e-10 10000000000.0 -53753.3968659 311332.395351
400 2.51188643151e-10 10000000000.0 -77404.8914869 419343.860131
400 1.58489319246e-10 10000000000.0 -92885.8697843 547045.970626
400 1e-10 10000000000.0 100000.0 686736.100035
400 6.3095734448e-11 10000000000.0 100000.0 825374.348907
400 3.98107170553e-11 10000000000.0 100000.0 950258.685319
400 2.51188643151e-11 10000000000.0 100000.0 1055190.06453
400 1.58489319246e-11 10000000000.0 100000.0 1156751.35631
400 1e-11 10000000000.0 100000.0 1313940.77982

# k = 1e11
400 1e-07 1e+11 -2422.8399787 13024.3386633
400 6.3095734448e-08 1e+11 -2907.40797444 14895.3614944
400 3.98107170553e-08 1e+11 -3488.88956932 17512.7910458
400 2.51188643151e-08 1e+11 -4186.66748319 21234.0762342
400 1.58489319246e-08 1e+11 -5024.00097982 26582.3374405
400 1e-08 1e+11 -6028.80117579 34311.9061348
400 6.3095734448e-09 1e+11 -8681.47369314 45597.3551965
400 3.98107170553e-09 1e+11 -10417.7684318 62123.7038614
400 2.51188643151e-09 1e+11 -15001.5865417 86568.997754
400 1.58489319246e-09 1e+11 -21602.2846201 122550.943188
400 1e-09 1e+11 -31107.2898529 175279.16603
400 6.3095734448e-10 1e+11 -44794.4973882 251720.38468
400 3.98107170553e-10 1e+11 -64504.0762391 360454.974639
400 2.51188643151e-10 1e+11 -92885.8697843 510658.904612
400 1.58489319246e-10 1e+11 100000.0 708998.222517
400 1e-10 1e+11 100000.0 956350.973577
400 6.3095734448e-11 1e+11 100000.0 1244548.22558
400 3.98107170553e-11 1e+11 100000.0 1551802.83719
400 2.51188643151e-11 1e+11 100000.0 1849063.08941
400 1.58489319246e-11 1e+11 100000.0 2109971.49978
400 1e-11 1e+11 100000.0 2330506.02041

# k = 1e12
400 1e-07 1e+12 -2422.8399787 13046.3503593
400 6.3095734448e-08 1e+12 -2907.40797444 14927.7044752
400 3.98107170553e-08 1e+12 -3488.88956932 17562.8191927
400 2.51188643151e-08 1e+12 -4186.66748319 21314.8205075
400 1.58489319246e-08 1e+12 -5024.00097982 26717.9066699
400 1e-08 1e+12 -6028.80117579 34547.9015642
400 6.3095734448e-09 1e+12 -8681.47369314 46043.5868061
400 3.98107170553e-09 1e+12 -12501.3221181 62977.3420922
400 2.51188643151e-09 1e+12 -15001.5865417 88235.1041839
400 1.58489319246e-09 1e+12 -21602.2846201 125949.395771
400 1e-09 1e+12 -31107.2898529 182294.394577
400 6.3095734448e-10 1e+12 -44794.4973882 266218.66462
400 3.98107170553e-10 1e+12 -77404.8914869 390397.574518
400 2.51188643151e-10 1e+12 100000.0 571468.440549
400 1.58489319246e-10 1e+12 100000.0 828204.250195
400 1e-10 1e+12 100000.0 1179962.53424
400 6.3095734448e-11 1e+12 100000.0 1640546.20625
400 3.98107170553e-11 1e+12 100000.0 2207477.22685
400 2.51188643151e-11 1e+12 100000.0 2852718.44272
400 1.58489319246e-11 1e+12 100000.0 3522437.6728
400 1e-11 1e+12 100000.0 4150702.02637

